mypackage/UserRepository.class
mypackage/Application.class
mypackage/StockRestController.class
mypackage/StockService.class
mypackage/RegistryRestController.class
mypackage/SeedDb.class
mypackage/StockWrapper.class
mypackage/LoggingHandler.class
mypackage/StockServiceImpl.class
mypackage/UserServiceImpl.class
mypackage/User.class
mypackage/UserService.class
